{
    "RG Sharma": {
        "SP Narine": 6,
        "A Mishra": 6,
        "R Vinay Kumar": 6,
        "SK Trivedi": 5,
        "DJ Bravo": 5,
        "UT Yadav": 4,
        "DS Kulkarni": 4,
        "JD Unadkat": 3,
        "JP Faulkner": 3,
        "SK Warne": 3,
        "RA Jadeja": 3,
        "JA Morkel": 3,
        "I Sharma": 3,
        "AS Rajpoot": 2,
        "NM Coulter-Nile": 2
    }
}