{
    "Rising Pune Supergiant": 5,
    "Kolkata Knight Riders": 53,
    "Kings XI Punjab": 35,
    "Royal Challengers Bangalore": 41,
    "Sunrisers Hyderabad": 23,
    "Mumbai Indians": 56,
    "Gujarat Lions": 10,
    "Delhi Daredevils": 35,
    "Chennai Super Kings": 57,
    "Rajasthan Royals": 42,
    "Deccan Chargers": 19,
    "Kochi Tuskers Kerala": 4,
    "Pune Warriors": 3,
    "Rising Pune Supergiants": 3,
    "Delhi Capitals": 7
}